project2/output.vcd
$date
	Tue May 31 17:32:36 2022
$end
$version
	Icarus Verilog
$end
$timescale
	1ns
$end
$scope module cnvt_part2_tb $end
$var wire 7 ! print_BASE64 [6:0] $end
$var wire 6 " out_7847 [5:0] $end
$var reg 1 # clk $end
$var reg 98 $ ex2 [97:0] $end
$var reg 1 % in2 $end
$var integer 32 & i [31:0] $end
$scope module u1 $end
$var wire 1 # clk $end
$var wire 1 % in_1bit $end
$var wire 7 ' out_7bit [6:0] $end
$var wire 6 ( out_6bit [5:0] $end
$var wire 7 ) PrintOut [6:0] $end
$var wire 7 * PrintBase64 [6:0] $end
$scope module a1 $end
$var wire 1 # clk $end
$var wire 1 % in_1bit $end
$var reg 7 + out_7bit [6:0] $end
$var reg 7 , temp_7bit [6:0] $end
$var integer 32 - i [31:0] $end
$upscope $end
$scope module b1 $end
$var wire 1 # clk $end
$var wire 7 . in_7bit [6:0] $end
$var wire 7 / PrintOut [6:0] $end
$var reg 6 0 out_6bit [5:0] $end
$var reg 13 1 temp [12:0] $end
$var integer 32 2 i [31:0] $end
$upscope $end
$scope module c1 $end
$var wire 7 3 print_in [6:0] $end
$var reg 7 4 print_out [6:0] $end
$upscope $end
$upscope $end
$upscope $end
$enddefinitions $end
#0
$dumpvars
bx 4
b0xxxxxx 3
b11111111111111111111111111111111 2
bx 1
bx 0
b0xxxxxx /
bx .
b0 -
bx ,
bx +
bx *
b0xxxxxx )
bx (
bx '
b1100000 &
1%
b10000111001111100110110100000110011011000101100011011111110100111100111011111110011011101011101110 $
0#
bx "
bx !
$end
#1
0%
b1011111 &
b1 -
bx1 ,
1#
#2
b1011110 &
b10 -
bx10 ,
0#
#3
b1011101 &
b11 -
bx100 ,
1#
#4
b1011100 &
b100 -
bx1000 ,
0#
#5
1%
b1011011 &
b101 -
bx10000 ,
1#
#6
b1011010 &
b110 -
bx100001 ,
b1000001 !
b1000001 *
b1000001 4
0#
b0 2
b0 )
b0 /
b0 3
b0 "
b0 (
b0 0
#7
b1011001 &
b1000011 '
b1000011 +
b1000011 .
b0 -
b1000011 ,
1#
#8
0%
b1011000 &
b1 -
b111 ,
0#
#9
b1010111 &
b10 -
b1110 ,
1#
#10
1%
b1010110 &
b11 -
b11100 ,
0#
#11
b1010101 &
b100 -
b111001 ,
1#
#12
b1010100 &
b101 -
b1110011 ,
b1101000 !
b1101000 *
b1101000 4
0#
b1 2
b100001 )
b100001 /
b100001 3
b100001 "
b100001 (
b100001 0
b1000011 1
#13
b1010011 &
b110 -
b1100111 ,
1#
#14
b1010010 &
b1001111 '
b1001111 +
b1001111 .
b0 -
b1001111 ,
0#
#15
0%
b1010001 &
b1 -
b11111 ,
1#
#16
b1010000 &
b10 -
b111110 ,
0#
#17
1%
b1001111 &
b11 -
b1111100 ,
1#
#18
b1001110 &
b100 -
b1111001 ,
b1111010 !
b1111010 *
b1111010 4
0#
b10 2
b110011 )
b110011 /
b110011 3
b110011 "
b110011 (
b110011 0
b11001111 1
#19
0%
b1001101 &
b101 -
b1110011 ,
1#
#20
1%
b1001100 &
b110 -
b1100110 ,
0#
#21
b1001011 &
b1001101 '
b1001101 +
b1001101 .
b0 -
b1001101 ,
1#
#22
0%
b1001010 &
b1 -
b11011 ,
0#
#23
1%
b1001001 &
b10 -
b110110 ,
1#
#24
0%
b1001000 &
b11 -
b1101101 ,
b110101 !
b110101 *
b110101 4
0#
b11 2
b111001 )
b111001 /
b111001 3
b111001 "
b111001 (
b111001 0
b111001101 1
#25
b1000111 &
b100 -
b1011010 ,
1#
#26
b1000110 &
b101 -
b110100 ,
0#
#27
b1000101 &
b110 -
b1101000 ,
1#
#28
b1000100 &
b1010000 '
b1010000 +
b1010000 .
b0 -
b1010000 ,
0#
#29
1%
b1000011 &
b1 -
b100000 ,
1#
#30
b1000010 &
b10 -
b1000001 ,
b1110100 !
b1110100 *
b1110100 4
0#
b100 2
b101101 )
b101101 /
b101101 3
b101101 "
b101101 (
b101101 0
b1011010000 1
#31
0%
b1000001 &
b11 -
b11 ,
1#
#32
b1000000 &
b100 -
b110 ,
0#
#33
1%
b111111 &
b101 -
b1100 ,
1#
#34
b111110 &
b110 -
b11001 ,
0#
#35
0%
b111101 &
b110011 '
b110011 +
b110011 .
b0 -
b110011 ,
1#
#36
1%
b111100 &
b1 -
b1100110 ,
b1000010 !
b1000010 *
b1000010 4
0#
b101 2
b1 )
b1 /
b1 3
b1 "
b1 (
b1 0
b110011 1
#37
b111011 &
b10 -
b1001101 ,
1#
#38
0%
b111010 &
b11 -
b11011 ,
0#
#39
b111001 &
b100 -
b110110 ,
1#
#40
b111000 &
b101 -
b1101100 ,
0#
#41
1%
b110111 &
b110 -
b1011000 ,
1#
#42
0%
b110110 &
b110001 '
b110001 +
b110001 .
b0 -
b110001 ,
b1101101 !
b1101101 *
b1101101 4
0#
b110 2
b100110 )
b100110 /
b100110 3
b100110 "
b100110 (
b100110 0
b100110110011 1
#43
1%
b110101 &
b1 -
b1100010 ,
1#
#44
b110100 &
b10 -
b1000101 ,
0#
#45
0%
b110011 &
b11 -
b1011 ,
1#
#46
b110010 &
b100 -
b10110 ,
0#
#47
b110001 &
b101 -
b101100 ,
1#
#48
1%
b110000 &
b110 -
b1011000 ,
b1111010 !
b1111010 *
b1111010 4
0#
b0 2
b110011 )
b110011 /
b110011 3
b110011 "
b110011 (
b110011 0
#49
b101111 &
b0 -
b110001 ,
1#
#50
0%
b101110 &
b1 -
b1100011 ,
0#
#51
1%
b101101 &
b10 -
b1000110 ,
1#
#52
b101100 &
b11 -
b1101 ,
0#
#53
b101011 &
b100 -
b11011 ,
1#
#54
b101010 &
b101 -
b110111 ,
b1011001 !
b1011001 *
b1011001 4
0#
b1 2
b11000 )
b11000 /
b11000 3
b11000 "
b11000 (
b11000 0
b1100110110001 1
#55
b101001 &
b110 -
b1101111 ,
1#
#56
b101000 &
b1011111 '
b1011111 +
b1011111 .
b0 -
b1011111 ,
0#
#57
b100111 &
b1 -
b111111 ,
1#
#58
0%
b100110 &
b10 -
b1111111 ,
0#
#59
1%
b100101 &
b11 -
b1111110 ,
1#
#60
0%
b100100 &
b100 -
b1111101 ,
b110011 !
b110011 *
b110011 4
0#
b10 2
b110111 )
b110111 /
b110111 3
b110111 "
b110111 (
b110111 0
b11011111 1
#61
b100011 &
b101 -
b1111010 ,
1#
#62
1%
b100010 &
b110 -
b1110100 ,
0#
#63
b100001 &
b1101001 '
b1101001 +
b1101001 .
b0 -
b1101001 ,
1#
#64
b100000 &
b1 -
b1010011 ,
0#
#65
b11111 &
b10 -
b100111 ,
1#
#66
0%
b11110 &
b11 -
b1001111 ,
b111001 !
b111001 *
b111001 4
0#
b11 2
b111101 )
b111101 /
b111101 3
b111101 "
b111101 (
b111101 0
b111101001 1
#67
b11101 &
b100 -
b11110 ,
1#
#68
1%
b11100 &
b101 -
b111100 ,
0#
#69
b11011 &
b110 -
b1111001 ,
1#
#70
b11010 &
b1110011 '
b1110011 +
b1110011 .
b0 -
b1110011 ,
0#
#71
0%
b11001 &
b1 -
b1100111 ,
1#
#72
1%
b11000 &
b10 -
b1001110 ,
b1010000 !
b1010000 *
b1010000 4
0#
b100 2
b1111 )
b1111 /
b1111 3
b1111 "
b1111 (
b1111 0
b11110011 1
#73
b10111 &
b11 -
b11101 ,
1#
#74
b10110 &
b100 -
b111011 ,
0#
#75
b10101 &
b101 -
b1110111 ,
1#
#76
b10100 &
b110 -
b1101111 ,
0#
#77
b10011 &
b1011111 '
b1011111 +
b1011111 .
b0 -
b1011111 ,
1#
#78
b10010 &
b1 -
b111111 ,
b1001111 !
b1001111 *
b1001111 4
0#
b101 2
b1110 )
b1110 /
b1110 3
b1110 "
b1110 (
b1110 0
b111011111 1
#79
0%
b10001 &
b10 -
b1111111 ,
1#
#80
b10000 &
b11 -
b1111110 ,
0#
#81
1%
b1111 &
b100 -
b1111100 ,
1#
#82
b1110 &
b101 -
b1111001 ,
0#
#83
0%
b1101 &
b110 -
b1110011 ,
1#
#84
1%
b1100 &
b1100110 '
b1100110 +
b1100110 .
b0 -
b1100110 ,
b101111 !
b101111 *
b101111 4
0#
b110 2
b111111 )
b111111 /
b111111 3
b111111 "
b111111 (
b111111 0
b111111011111 1
#85
b1011 &
b1 -
b1001101 ,
1#
#86
b1010 &
b10 -
b11011 ,
0#
#87
0%
b1001 &
b11 -
b110111 ,
1#
#88
1%
b1000 &
b100 -
b1101110 ,
0#
#89
0%
b111 &
b101 -
b1011101 ,
1#
#90
1%
b110 &
b110 -
b111010 ,
b1100110 !
b1100110 *
b1100110 4
0#
b0 2
b11111 )
b11111 /
b11111 3
b11111 "
b11111 (
b11111 0
#91
b101 &
b1110101 '
b1110101 +
b1110101 .
b0 -
b1110101 ,
1#
#92
b100 &
b1 -
b1101011 ,
0#
#93
0%
b11 &
b10 -
b1010111 ,
1#
#94
1%
b10 &
b11 -
b101110 ,
0#
#95
b1 &
b100 -
b1011101 ,
1#
#96
b0 &
b101 -
b111011 ,
b110110 !
b110110 *
b110110 4
0#
b1 2
b111010 )
b111010 /
b111010 3
b111010 "
b111010 (
b111010 0
b111111110101 1
#97
0%
b11111111111111111111111111111111 &
b110 -
b1110111 ,
1#
#98
b11111111111111111111111111111110 &
b1101110 '
b1101110 +
b1101110 .
b0 -
b1101110 ,
0#
#99
b11111111111111111111111111111101 &
b1 -
b1011100 ,
1#
#100
b11111111111111111111111111111100 &
b10 -
b111000 ,
0#
#101
b11111111111111111111111111111011 &
b11 -
b1110000 ,
1#
#102
b11111111111111111111111111111010 &
b100 -
b1100000 ,
b110111 !
b110111 *
b110111 4
0#
b10 2
b111011 )
b111011 /
b111011 3
b111011 "
b111011 (
b111011 0
b11101110 1
#103
b11111111111111111111111111111001 &
b101 -
b1000000 ,
1#
#104
b11111111111111111111111111111000 &
b110 -
b0 ,
0#
#105
b11111111111111111111111111110111 &
b0 '
b0 +
b0 .
b0 -
1#
#106
b11111111111111111111111111110110 &
b1 -
0#
#107
b11111111111111111111111111110101 &
b10 -
1#
#108
b11111111111111111111111111110100 &
b11 -
b1100111 !
b1100111 *
b1100111 4
0#
b11 2
b100000 )
b100000 /
b100000 3
b100000 "
b100000 (
b100000 0
b100000000 1
#109
b11111111111111111111111111110011 &
b100 -
1#
#110
b11111111111111111111111111110010 &
b101 -
0#
#111
b11111111111111111111111111110001 &
b110 -
1#
#112
b11111111111111111111111111110000 &
b0 -
0#
#113
b11111111111111111111111111101111 &
b1 -
1#
#114
b11111111111111111111111111101110 &
b10 -
b1000001 !
b1000001 *
b1000001 4
0#
b100 2
b0 )
b0 /
b0 3
b0 "
b0 (
b0 0
b0 1
#115
b11111111111111111111111111101101 &
b11 -
1#
#116
b11111111111111111111111111101100 &
b100 -
0#
#117
b11111111111111111111111111101011 &
b101 -
1#
#118
b11111111111111111111111111101010 &
b110 -
0#
#119
b11111111111111111111111111101001 &
b0 -
1#
#120
b11111111111111111111111111101000 &
b1 -
0#
b101 2
#121
b11111111111111111111111111100111 &
b10 -
1#
#122
b11111111111111111111111111100110 &
b11 -
0#
#123
b11111111111111111111111111100101 &
b100 -
1#
#124
b11111111111111111111111111100100 &
b101 -
0#
#125
b11111111111111111111111111100011 &
b110 -
1#
#126
b11111111111111111111111111100010 &
b0 -
0#
b110 2
#127
b11111111111111111111111111100001 &
b1 -
1#
#128
b11111111111111111111111111100000 &
b10 -
0#
#129
b11111111111111111111111111011111 &
b11 -
1#
#130
b11111111111111111111111111011110 &
b100 -
0#
#131
b11111111111111111111111111011101 &
b101 -
1#
#132
b11111111111111111111111111011100 &
b110 -
0#
b0 2
#133
b11111111111111111111111111011011 &
b0 -
1#
#134
b11111111111111111111111111011010 &
b1 -
0#
#135
b11111111111111111111111111011001 &
b10 -
1#
#136
b11111111111111111111111111011000 &
b11 -
0#
#137
b11111111111111111111111111010111 &
b100 -
1#
#138
b11111111111111111111111111010110 &
b101 -
0#
b1 2
#139
b11111111111111111111111111010101 &
b110 -
1#
#140
b11111111111111111111111111010100 &
b0 -
0#
#141
b11111111111111111111111111010011 &
b1 -
1#
#142
b11111111111111111111111111010010 &
b10 -
0#
#143
b11111111111111111111111111010001 &
b11 -
1#
#144
b11111111111111111111111111010000 &
b100 -
0#
b10 2
#145
b11111111111111111111111111001111 &
b101 -
1#
#146
b11111111111111111111111111001110 &
b110 -
0#
#147
b11111111111111111111111111001101 &
b0 -
1#
#148
b11111111111111111111111111001100 &
b1 -
0#
#149
b11111111111111111111111111001011 &
b10 -
1#
#150
b11111111111111111111111111001010 &
b11 -
0#
b11 2
